^C:\USERS\ALEKS\SOURCE\REPOS\AISD\2.1\STDAFX.CPP
/c /ZI /nologo /W3 /WX- /diagnostics:classic /sdl /Od /Oy- /D WIN32 /D _DEBUG /D _CONSOLE /D _UNICODE /D UNICODE /Gm /EHsc /RTC1 /MDd /GS /fp:precise /Zc:wchar_t /Zc:forScope /Zc:inline /Yc"stdafx.h" /Fp"DEBUG\2.2.PCH" /Fo"DEBUG\\" /Fd"DEBUG\VC141.PDB" /Gd /TP /analyze- C:\USERS\ALEKS\SOURCE\REPOS\AISD\2.1\STDAFX.CPP
^C:\USERS\ALEKS\SOURCE\REPOS\AISD\2.1\2.2.CPP
/c /ZI /nologo /W3 /WX- /diagnostics:classic /sdl /Od /Oy- /D WIN32 /D _DEBUG /D _CONSOLE /D _UNICODE /D UNICODE /Gm /EHsc /RTC1 /MDd /GS /fp:precise /Zc:wchar_t /Zc:forScope /Zc:inline /Yu"stdafx.h" /Fp"DEBUG\2.2.PCH" /Fo"DEBUG\\" /Fd"DEBUG\VC141.PDB" /Gd /TP /analyze- C:\USERS\ALEKS\SOURCE\REPOS\AISD\2.1\2.2.CPP
